@startuml
left to right direction
skinparam linetype polyline

package "Protocol client" as p_pc {
    component "\n\nProtocol client\n\n" as pc
}

package "Bulletin board" as p_bb {
    component "\n\nBulletin board\n\n" as bb
}

package "Control components" as p_cc  {
    component "\n\nControl component #j\n\n" as ccj
}

p_bb -[hidden]> p_cc

' ==== Exchange: shufflingRequests ====
rectangle x_sr [
    <b><<Fanout>> shufflingRequests</b>
    ----
    ShufflingRequestEvent
]
x_sr 0)-down-->> ccj
pc -down-->> x_sr

' ==== Exchange: generatorsPublications ====
rectangle x_gp [
    <b><<Fanout>> generatorsPublications</b>
    ----
    GeneratorsPublicationEvent
]

x_gp 0)-down-->> bb
ccj -up-->> x_gp

' ==== Exchange: shufflePublications ====
rectangle x_sp [
    <b><<Fanout>> shufflePublications</b>
    ----
    ShufflePublicationEvent
]
x_sp 0)-down-->> bb
x_sp 0)-down-->> ccj
x_sp 0)-up-->> pc
ccj -up-->> x_sp

' ==== Exchange: startPartialDecryptions ====
rectangle x_spd [
    <b><<Fanout>> startPartialDecryptions</b>
    ----
    StartPartialDecryptionEvent
]
x_spd 0)-down-->> ccj
ccj -up-->> x_spd

' ==== Exchange: partialDecryptionsPublications ====
rectangle x_pdp [
    <b><<Fanout>> partialDecryptionsPublications</b>
    ----
    PartialDecryptionsPublicationEvent
]
x_pdp 0)-down-->> bb
x_pdp 0)-up-->> pc
ccj -up-->> x_pdp

' ==== Exchange: electionVerificationDataRequest ====
rectangle x_evdreq [
    <b><<Fanout>> electionVerificationDataRequest</b>
    ----
    VerificationPublicParametersRequestEvent
    ....
    VerificationElectionSetRequestEvent
    ....
    VerificationPrimesRequestEvent
    ....
    VerificationGeneratorsRequestEvent
    ....
    VerificationPublicKeyPartsRequestEvent
    ....
    VerificationElectionOfficerKeyRequestEvent
    ....
    VerificationPublicCredentialPartsRequestEvent
    ....
    VerificationBallotKeysRequestEvent
    ....
    VerificationBallotsRequestEvent
    ....
    VerificationConfirmationKeysRequestEvent
    ....
    VerificationConfirmationsRequestEvent
    ....
    VerificationShuffleRequestEvent
    ....
    VerificationShuffleProofRequestEvent
    ....
    VerificationPartialDecryptionsRequestEvent
    ....
    VerificationDecryptionProofRequestEvent
]
x_evdreq 0)-down-->> bb
pc -down-->> x_evdreq

' ==== Exchange: electionVerificationDataPublication ====
rectangle x_evdpub [
    <b><<Fanout>> electionVerificationDataPublication</b>
    ----
    VerificationPublicParametersRequestEvent
    ....
    VerificationElectionSetRequestEvent
    ....
    VerificationPrimesRequestEvent
    ....
    VerificationGeneratorsRequestEvent
    ....
    VerificationPublicKeyPartsRequestEvent
    ....
    VerificationElectionOfficerKeyRequestEvent
    ....
    VerificationPublicCredentialPartsRequestEvent
    ....
    VerificationBallotKeysRequestEvent
    ....
    VerificationBallotsRequestEvent
    ....
    VerificationConfirmationKeysRequestEvent
    ....
    VerificationConfirmationsRequestEvent
    ....
    VerificationShuffleRequestEvent
    ....
    VerificationShuffleProofRequestEvent
    ....
    VerificationPartialDecryptionsRequestEvent
    ....
    VerificationDecryptionProofRequestEvent
]
x_evdpub 0)-up-->> pc
bb -up-->> x_evdpub

' Layout
x_sr -[hidden]right-> x_gp
x_gp -[hidden]right-> x_sp
x_sp -[hidden]right-> x_spd
x_spd -[hidden]right-> x_evdreq
x_evdreq -[hidden]right-> x_evdpub

@enduml